<define-tag pagetitle>DLA-2911-1 apng2gif</define-tag>
<define-tag report_date>2022-2-04</define-tag>
<define-tag secrefs>CVE-2017-6960 CVE-2017-6961 CVE-2017-6962 Bug#854447</define-tag>
<define-tag packages>apng2gif</define-tag>
<define-tag isvulnerable>yes</define-tag>
<define-tag fixed>yes</define-tag>
<define-tag fixed-section>no</define-tag>

#use wml::debian::security

