<define-tag pagetitle>DSA-5017-1 xen</define-tag>
<define-tag report_date>2021-12-05</define-tag>
<define-tag secrefs>CVE-2021-28702 CVE-2021-28704 CVE-2021-28705 CVE-2021-28706 CVE-2021-28707 CVE-2021-28708 CVE-2021-28709</define-tag>
<define-tag packages>xen</define-tag>
<define-tag isvulnerable>yes</define-tag>
<define-tag fixed>yes</define-tag>
<define-tag fixed-section>no</define-tag>

#use wml::debian::security



</dl>
