<define-tag pagetitle>DSA-5015-1 samba</define-tag>
<define-tag report_date>2021-11-30</define-tag>
<define-tag secrefs>CVE-2020-25717</define-tag>
<define-tag packages>samba</define-tag>
<define-tag isvulnerable>yes</define-tag>
<define-tag fixed>yes</define-tag>
<define-tag fixed-section>no</define-tag>

#use wml::debian::security



</dl>
