<define-tag pagetitle>DLA-2809-1 udisks2</define-tag>
<define-tag report_date>2021-11-05</define-tag>
<define-tag secrefs>CVE-2021-3802</define-tag>
<define-tag packages>udisks2</define-tag>
<define-tag isvulnerable>yes</define-tag>
<define-tag fixed>yes</define-tag>
<define-tag fixed-section>no</define-tag>

#use wml::debian::security

