<define-tag pagetitle>DLA-2576-1 redis</define-tag>
<define-tag report_date>2021-02-25</define-tag>
<define-tag secrefs>CVE-2021-21309</define-tag>
<define-tag packages>redis</define-tag>
<define-tag isvulnerable>yes</define-tag>
<define-tag fixed>yes</define-tag>
<define-tag fixed-section>no</define-tag>

#use wml::debian::security
