<define-tag pagetitle>DLA-2753-1 qemu</define-tag>
<define-tag report_date>2021-9-02</define-tag>
<define-tag secrefs>CVE-2021-3527 CVE-2021-3592 CVE-2021-3594 CVE-2021-3595 CVE-2021-3682 CVE-2021-3713 Bug#988157 Bug#989993 Bug#989995 Bug#989996 Bug#991911 Bug#992727</define-tag>
<define-tag packages>qemu</define-tag>
<define-tag isvulnerable>yes</define-tag>
<define-tag fixed>yes</define-tag>
<define-tag fixed-section>no</define-tag>

#use wml::debian::security

