<define-tag pagetitle>DLA-2731-1 wordpress</define-tag>
<define-tag report_date>2021-08-04</define-tag>
<define-tag secrefs>not assigned yet</define-tag>
<define-tag packages>wordpress</define-tag>
<define-tag isvulnerable>yes</define-tag>
<define-tag fixed>yes</define-tag>
<define-tag fixed-section>no</define-tag>

#use wml::debian::security

