<define-tag pagetitle>DLA-1001-1 exim4</define-tag>
<define-tag report_date>2017-6-25</define-tag>
<define-tag secrefs>CVE-2017-1000369</define-tag>
<define-tag packages>exim4</define-tag>
<define-tag isvulnerable>yes</define-tag>
<define-tag fixed>yes</define-tag>
<define-tag fixed-section>no</define-tag>

#use wml::debian::security

