<define-tag pagetitle>DLA-1027-1 heimdal</define-tag>
<define-tag report_date>2017-7-14</define-tag>
<define-tag secrefs>CVE-2017-11103 Bug#868208</define-tag>
<define-tag packages>heimdal</define-tag>
<define-tag isvulnerable>yes</define-tag>
<define-tag fixed>yes</define-tag>
<define-tag fixed-section>no</define-tag>

#use wml::debian::security

