<define-tag pagetitle>DLA-2140-1 firefox-esr</define-tag>
<define-tag report_date>2020-03-11</define-tag>
<define-tag secrefs>CVE-2019-20503 CVE-2020-6805 CVE-2020-6806 CVE-2020-6807 CVE-2020-6811 CVE-2020-6812 CVE-2020-6814</define-tag>
<define-tag packages>firefox-esr</define-tag>
<define-tag isvulnerable>yes</define-tag>
<define-tag fixed>yes</define-tag>
<define-tag fixed-section>no</define-tag>

#use wml::debian::security

