<define-tag pagetitle>DLA-1469-1 libxcursor</define-tag>
<define-tag report_date>2018-8-18</define-tag>
<define-tag secrefs>CVE-2015-9262 Bug##906012</define-tag>
<define-tag packages>libxcursor</define-tag>
<define-tag isvulnerable>yes</define-tag>
<define-tag fixed>yes</define-tag>
<define-tag fixed-section>no</define-tag>

#use wml::debian::security

