<define-tag pagetitle>DSA-5119-1 subversion</define-tag>
<define-tag report_date>2022-4-13</define-tag>
<define-tag secrefs>CVE-2021-28544 CVE-2022-24070</define-tag>
<define-tag packages>subversion</define-tag>
<define-tag isvulnerable>yes</define-tag>
<define-tag fixed>yes</define-tag>
<define-tag fixed-section>no</define-tag>

#use wml::debian::security



</dl>
