<define-tag pagetitle>DLA-1888-1 imagemagick</define-tag>
<define-tag report_date>2019-08-16</define-tag>
<define-tag secrefs>CVE-2019-12974 CVE-2019-13135 CVE-2019-13295 CVE-2019-13297 CVE-2019-13304 CVE-2019-13305 CVE-2019-13306</define-tag>
<define-tag packages>imagemagick</define-tag>
<define-tag isvulnerable>yes</define-tag>
<define-tag fixed>yes</define-tag>
<define-tag fixed-section>no</define-tag>

#use wml::debian::security

