<define-tag pagetitle>DLA-575-2 collectd</define-tag>
<define-tag report_date>2016-8-4</define-tag>
<define-tag secrefs>Bug#833013</define-tag>
<define-tag packages>collectd</define-tag>
<define-tag isvulnerable>yes</define-tag>
<define-tag fixed>yes</define-tag>
<define-tag fixed-section>no</define-tag>

#use wml::debian::security

